{"docs":[{"fairings":{"reused":null,"recovery_attempt":null,"recovered":null,"ships":[]},"links":{"patch":{"small":null,"large":null},"reddit":{"campaign":null,"launch":null,"media":null,"recovery":null},"flickr":{"small":[],"original":[]},"presskit":null,"webcast":null,"youtube_id":null,"article":null,"wikipedia":null},"static_fire_date_utc":null,"static_fire_date_unix":null,"net":false,"window":null,"rocket":"5e9d0d95eda69973a809d1ec","success":null,"failures":[],"details":null,"crew":[],"ships":[],"capsules":[],"payloads":[],"launchpad":"5e9e4502f509092b78566f87","flight_number":197,"name":"SWOT","date_utc":"2022-12-05T00:00:00.000Z","date_unix":1670198400,"date_local":"2022-12-04T16:00:00-08:00","date_precision":"day","upcoming":true,"cores":[{"core":null,"flight":null,"gridfins":true,"legs":true,"reused":false,"landing_attempt":null,"landing_success":null,"landing_type":null,"landpad":null}],"auto_update":true,"tbd":false,"launch_library_id":null,"id":"633f724c0531f07b4fdf59c5"},{"fairings":{"reused":null,"recovery_attempt":null,"recovered":null,"ships":[]},"links":{"patch":{"small":null,"large":null},"reddit":{"campaign":null,"launch":null,"media":null,"recovery":null},"flickr":{"small":[],"original":[]},"presskit":null,"webcast":null,"youtube_id":null,"article":null,"wikipedia":null},"static_fire_date_utc":null,"static_fire_date_unix":null,"net":false,"window":null,"rocket":"5e9d0d95eda69973a809d1ec","success":null,"failures":[],"details":null,"crew":[],"ships":[],"capsules":[],"payloads":["6243b896af52800c6e91926e"],"launchpad":"5e9e4501f509094ba4566f84","flight_number":200,"name":"WorldView Legion 1 & 2","date_utc":"2022-12-01T00:00:00.000Z","date_unix":1669852800,"date_local":"2022-11-30T19:00:00-05:00","date_precision":"month","upcoming":true,"cores":[{"core":null,"flight":null,"gridfins":null,"legs":null,"reused":null,"landing_attempt":null,"landing_success":null,"landing_type":null,"landpad":null}],"auto_update":true,"tbd":false,"launch_library_id":null,"id":"6243ae58af52800c6e91925a"},{"fairings":{"reused":null,"recovery_attempt":null,"recovered":null,"ships":[]},"links":{"patch":{"small":null,"large":null},"reddit":{"campaign":null,"launch":null,"media":null,"recovery":null},"flickr":{"small":[],"original":[]},"presskit":null,"webcast":null,"youtube_id":null,"article":null,"wikipedia":null},"static_fire_date_utc":null,"static_fire_date_unix":null,"net":false,"window":null,"rocket":"5e9d0d95eda69974db09d1ed","success":null,"failures":[],"details":null,"crew":[],"ships":[],"capsules":[],"payloads":[],"launchpad":"5e9e4502f509094188566f88","flight_number":202,"name":"Viasat-3 & Arcturus","date_utc":"2022-12-01T00:00:00.000Z","date_unix":1669852800,"date_local":"2022-11-30T19:00:00-05:00","date_precision":"month","upcoming":true,"cores":[{"core":null,"flight":null,"gridfins":true,"legs":true,"reused":false,"landing_attempt":null,"landing_success":null,"landing_type":null,"landpad":null},{"core":null,"flight":null,"gridfins":true,"legs":true,"reused":false,"landing_attempt":null,"landing_success":null,"landing_type":null,"landpad":null},{"core":null,"flight":null,"gridfins":true,"legs":true,"reused":false,"landing_attempt":null,"landing_success":null,"landing_type":null,"landpad":null}],"auto_update":true,"tbd":false,"launch_library_id":null,"id":"633f72130531f07b4fdf59c3"},{"fairings":{"reused":null,"recovery_attempt":null,"recovered":null,"ships":[]},"links":{"patch":{"small":null,"large":null},"reddit":{"campaign":null,"launch":null,"media":null,"recovery":null},"flickr":{"small":[],"original":[]},"presskit":null,"webcast":null,"youtube_id":null,"article":null,"wikipedia":null},"static_fire_date_utc":null,"static_fire_date_unix":null,"net":false,"window":null,"rocket":"5e9d0d95eda69973a809d1ec","success":null,"failures":[],"details":null,"crew":[],"ships":[],"capsules":[],"payloads":["63161760ffc78f3b8567071c"],"launchpad":"5e9e4502f509092b78566f87","flight_number":199,"name":"TTL-1","date_utc":"2022-12-01T00:00:00.000Z","date_unix":1669852800,"date_local":"2022-11-30T16:00:00-08:00","date_precision":"month","upcoming":true,"cores":[{"core":null,"flight":null,"gridfins":null,"legs":null,"reused":null,"landing_attempt":null,"landing_success":null,"landing_type":null,"landpad":null}],"auto_update":true,"tbd":false,"launch_library_id":null,"id":"63161384ffc78f3b8567070e"},{"fairings":{"reused":null,"recovery_attempt":null,"recovered":null,"ships":[]},"links":{"patch":{"small":null,"large":null},"reddit":{"campaign":null,"launch":null,"media":null,"recovery":null},"flickr":{"small":[],"original":[]},"presskit":null,"webcast":null,"youtube_id":null,"article":null,"wikipedia":null},"static_fire_date_utc":null,"static_fire_date_unix":null,"net":false,"window":null,"rocket":"5e9d0d95eda69973a809d1ec","success":null,"failures":[],"details":null,"crew":[],"ships":[],"capsules":[],"payloads":[],"launchpad":"5e9e4501f509094ba4566f84","flight_number":198,"name":"Transporter-6","date_utc":"2022-12-01T00:00:00.000Z","date_unix":1669852800,"date_local":"2022-11-30T19:00:00-05:00","date_precision":"month","upcoming":true,"cores":[{"core":null,"flight":null,"gridfins":true,"legs":true,"reused":false,"landing_attempt":null,"landing_success":null,"landing_type":null,"landpad":null}],"auto_update":true,"tbd":false,"launch_library_id":null,"id":"633f72580531f07b4fdf59c6"},{"fairings":{"reused":null,"recovery_attempt":null,"recovered":null,"ships":[]},"links":{"patch":{"small":null,"large":null},"reddit":{"campaign":null,"launch":null,"media":null,"recovery":null},"flickr":{"small":[],"original":[]},"presskit":null,"webcast":null,"youtube_id":null,"article":null,"wikipedia":null},"static_fire_date_utc":null,"static_fire_date_unix":null,"net":false,"window":null,"rocket":"5e9d0d95eda69973a809d1ec","success":null,"failures":[],"details":null,"crew":[],"ships":[],"capsules":[],"payloads":["6243b788af52800c6e91926b"],"launchpad":"5e9e4501f509094ba4566f84","flight_number":203,"name":"O3b mPower 3.4","date_utc":"2022-12-01T00:00:00.000Z","date_unix":1669852800,"date_local":"2022-11-30T19:00:00-05:00","date_precision":"month","upcoming":true,"cores":[{"core":null,"flight":null,"gridfins":null,"legs":null,"reused":null,"landing_attempt":null,"landing_success":null,"landing_type":null,"landpad":null}],"auto_update":true,"tbd":false,"launch_library_id":null,"id":"6243ae7daf52800c6e91925b"},{"fairings":{"reused":null,"recovery_attempt":null,"recovered":null,"ships":[]},"links":{"patch":{"small":null,"large":null},"reddit":{"campaign":null,"launch":null,"media":null,"recovery":null},"flickr":{"small":[],"original":[]},"presskit":null,"webcast":null,"youtube_id":null,"article":null,"wikipedia":null},"static_fire_date_utc":null,"static_fire_date_unix":null,"net":false,"window":null,"rocket":"5e9d0d95eda69973a809d1ec","success":null,"failures":[],"details":null,"crew":[],"ships":[],"capsules":[],"payloads":[],"launchpad":"5e9e4501f509094ba4566f84","flight_number":193,"name":"ispace Mission 1 & Rashid","date_utc":"2022-11-22T00:00:00.000Z","date_unix":1669075200,"date_local":"2022-11-21T19:00:00-05:00","date_precision":"day","upcoming":true,"cores":[{"core":null,"flight":null,"gridfins":true,"legs":true,"reused":false,"landing_attempt":null,"landing_success":null,"landing_type":null,"landpad":null}],"auto_update":true,"tbd":false,"launch_library_id":null,"id":"633f723d0531f07b4fdf59c4"},{"fairings":null,"links":{"patch":{"small":null,"large":null},"reddit":{"campaign":null,"launch":null,"media":null,"recovery":null},"flickr":{"small":[],"original":[]},"presskit":null,"webcast":null,"youtube_id":null,"article":null,"wikipedia":null},"static_fire_date_utc":null,"static_fire_date_unix":null,"net":false,"window":null,"rocket":"5e9d0d95eda69973a809d1ec","success":null,"failures":[],"details":null,"crew":[],"ships":[],"capsules":[],"payloads":[],"launchpad":"5e9e4502f509094188566f88","flight_number":194,"name":"CRS-26","date_utc":"2022-11-18T22:00:00.000Z","date_unix":1668808800,"date_local":"2022-11-18T17:00:00-05:00","date_precision":"hour","upcoming":true,"cores":[{"core":null,"flight":null,"gridfins":true,"legs":true,"reused":false,"landing_attempt":null,"landing_success":null,"landing_type":null,"landpad":null}],"auto_update":true,"tbd":false,"launch_library_id":null,"id":"633f71cc0531f07b4fdf59c0"},{"fairings":{"reused":null,"recovery_attempt":null,"recovered":null,"ships":[]},"links":{"patch":{"small":null,"large":null},"reddit":{"campaign":null,"launch":null,"media":null,"recovery":null},"flickr":{"small":[],"original":[]},"presskit":null,"webcast":null,"youtube_id":null,"article":null,"wikipedia":null},"static_fire_date_utc":null,"static_fire_date_unix":null,"net":false,"window":null,"rocket":"5e9d0d95eda69973a809d1ec","success":null,"failures":[],"details":null,"crew":[],"ships":[],"capsules":[],"payloads":[],"launchpad":"5e9e4501f509094ba4566f84","flight_number":192,"name":"Eutelsat 10B","date_utc":"2022-11-15T00:00:00.000Z","date_unix":1668470400,"date_local":"2022-11-14T19:00:00-05:00","date_precision":"day","upcoming":true,"cores":[{"core":null,"flight":null,"gridfins":true,"legs":true,"reused":false,"landing_attempt":null,"landing_success":null,"landing_type":null,"landpad":null}],"auto_update":true,"tbd":false,"launch_library_id":null,"id":"633f71b60531f07b4fdf59bf"},{"fairings":{"reused":null,"recovery_attempt":null,"recovered":null,"ships":[]},"links":{"patch":{"small":null,"large":null},"reddit":{"campaign":null,"launch":null,"media":null,"recovery":null},"flickr":{"small":[],"original":[]},"presskit":null,"webcast":null,"youtube_id":null,"article":null,"wikipedia":null},"static_fire_date_utc":null,"static_fire_date_unix":null,"net":false,"window":null,"rocket":"5e9d0d95eda69973a809d1ec","success":null,"failures":[],"details":null,"crew":[],"ships":[],"capsules":[],"payloads":[],"launchpad":"5e9e4501f509094ba4566f84","flight_number":191,"name":"Galaxy 31 (23R) & 32 (17R)","date_utc":"2022-11-08T00:00:00.000Z","date_unix":1667865600,"date_local":"2022-11-07T19:00:00-05:00","date_precision":"day","upcoming":true,"cores":[{"core":null,"flight":null,"gridfins":true,"legs":true,"reused":false,"landing_attempt":null,"landing_success":null,"landing_type":null,"landpad":null}],"auto_update":true,"tbd":false,"launch_library_id":null,"id":"633f71a90531f07b4fdf59be"},{"fairings":{"reused":null,"recovery_attempt":null,"recovered":null,"ships":[]},"links":{"patch":{"small":null,"large":null},"reddit":{"campaign":null,"launch":null,"media":null,"recovery":null},"flickr":{"small":[],"original":[]},"presskit":null,"webcast":null,"youtube_id":null,"article":null,"wikipedia":null},"static_fire_date_utc":null,"static_fire_date_unix":null,"net":false,"window":null,"rocket":"5e9d0d95eda69973a809d1ec","success":null,"failures":[],"details":null,"crew":[],"ships":[],"capsules":[],"payloads":[],"launchpad":"5e9e4501f509094ba4566f84","flight_number":189,"name":"Hotbird 13G","date_utc":"2022-11-03T03:24:00.000Z","date_unix":1667445840,"date_local":"2022-11-02T23:24:00-04:00","date_precision":"hour","upcoming":true,"cores":[{"core":null,"flight":null,"gridfins":true,"legs":true,"reused":false,"landing_attempt":null,"landing_success":null,"landing_type":null,"landpad":null}],"auto_update":true,"tbd":false,"launch_library_id":null,"id":"633f71dd0531f07b4fdf59c1"},{"fairings":{"reused":null,"recovery_attempt":null,"recovered":null,"ships":[]},"links":{"patch":{"small":null,"large":null},"reddit":{"campaign":null,"launch":null,"media":null,"recovery":null},"flickr":{"small":[],"original":[]},"presskit":null,"webcast":"https://youtu.be/pY628jRd6gM","youtube_id":"pY628jRd6gM","article":null,"wikipedia":null},"static_fire_date_utc":null,"static_fire_date_unix":null,"net":false,"window":null,"rocket":"5e9d0d95eda69974db09d1ed","success":null,"failures":[],"details":null,"crew":[],"ships":[],"capsules":[],"payloads":["5fe3b86eb3467846b324217c"],"launchpad":"5e9e4502f509094188566f88","flight_number":188,"name":"USSF-44","date_utc":"2022-11-01T13:41:00.000Z","date_unix":1667310060,"date_local":"2022-11-01T09:41:00-04:00","date_precision":"hour","upcoming":true,"cores":[{"core":"5fe3b8f2b3467846b3242181","flight":1,"gridfins":true,"legs":true,"reused":false,"landing_attempt":null,"landing_success":null,"landing_type":null,"landpad":null},{"core":"5fe3b8fbb3467846b3242182","flight":1,"gridfins":true,"legs":true,"reused":false,"landing_attempt":null,"landing_success":null,"landing_type":null,"landpad":null},{"core":"5fe3b906b3467846b3242183","flight":1,"gridfins":true,"legs":true,"reused":false,"landing_attempt":null,"landing_success":null,"landing_type":null,"landpad":null}],"auto_update":true,"tbd":false,"launch_library_id":"2306e0bc-e1a3-4a4a-9285-e1a94073655e","id":"6243aec2af52800c6e91925d"}],"totalDocs":205,"offset":0,"limit":12,"totalPages":18,"page":1,"pagingCounter":1,"hasPrevPage":false,"hasNextPage":true,"prevPage":null,"nextPage":2}